#,Case,Error,Checkpoint
0,beatv63subject.480.60.0.2.40.1.1.3.2/beat_net/best_new_metric,1.9081361717961403,200831/beatv63subject.480.60.0.2.40.1.1.3.2/checkpoint/beat_net/best_new_metric
1,beatv63subject.480.60.0.2.40.1.0.3.1/beat_net/best_new_metric,1.9796678703508486,200831/beatv63subject.480.60.0.2.40.1.0.3.1/checkpoint/beat_net/best_new_metric
