#,Case,Error,Checkpoint
0,beatv63subject.480.60.0.0.40.1.1.3.2/beat_net/best_new_metric,1.7926830748219338,200904/beatv63subject.480.60.0.0.40.1.1.3.2/checkpoint/beat_net/best_new_metric
1,beatv63subject.480.60.0.2.40.1.1.3.0/beat_net/best_new_metric,1.8320378409489195,200904/beatv63subject.480.60.0.2.40.1.1.3.0/checkpoint/beat_net/best_new_metric
2,beatv63subject.480.60.0.2.40.1.0.3.2/beat_seq/best_new_metric,1.8611977496380518,200904/beatv63subject.480.60.0.2.40.1.0.3.2/checkpoint/beat_seq/best_new_metric
3,beatv63subject.480.60.0.0.40.1.0.3.0/beat_seq/best_new_metric,1.88033654172956,200904/beatv63subject.480.60.0.0.40.1.0.3.0/checkpoint/beat_seq/best_new_metric
4,beatv63subject.480.60.0.2.40.1.1.3.1/beat_net/best_new_metric,1.8926635298722942,200904/beatv63subject.480.60.0.2.40.1.1.3.1/checkpoint/beat_net/best_new_metric
