#,Case,Error,Checkpoint,ain_ext
0,beatv63subject.480.60.0.0.40.3.1.8.0.1/beat_net/best_new_metric,1.6209725458740512,/home/dattran/MegaDataset/beat_classification/200914/beatv63subject.480.60.0.0.40.3.1.8.0.1/checkpoint/beat_net/best_new_metric,vagOdbietnmatr
1,beatv63subject.480.60.0.0.40.3.1.8.200.2/beat_net/best_new_metric,1.6336221819470202,/home/dattran/MegaDataset/beat_classification/200914/beatv63subject.480.60.0.0.40.3.1.8.200.2/checkpoint/beat_net/best_new_metric,vagOdbifcetnmatr
2,beatv63subject.480.60.0.0.40.3.1.8.200.1/beat_seq/best_new_metric,1.6365024355140334,/home/dattran/MegaDataset/beat_classification/200914/beatv63subject.480.60.0.0.40.3.1.8.200.1/checkpoint/beat_seq/best_new_metric,vagOdbifetsqmatr
3,beatv63subject.480.60.0.0.40.3.1.8.0.0/beat_seq/best_new_metric,1.6547546322416653,/home/dattran/MegaDataset/beat_classification/200914/beatv63subject.480.60.0.0.40.3.1.8.0.0/checkpoint/beat_seq/best_new_metric,vagOdbietsqmatr
4,beatv63subject.480.60.0.0.40.3.1.8.0.1/beat_seq/best_new_metric,1.6752462280037486,/home/dattran/MegaDataset/beat_classification/200914/beatv63subject.480.60.0.0.40.3.1.8.0.1/checkpoint/beat_seq/best_new_metric,vagOdbietsqmatr
5,beatv63subject.480.60.0.0.40.3.0.8.0.1/beat_net2/best_new_metric,1.6768311302341063,/home/dattran/MegaDataset/beat_classification/200914/beatv63subject.480.60.0.0.40.3.0.8.0.1/checkpoint/beat_net2/best_new_metric,vagOdibetncmatr
6,beatv63subject.480.60.0.0.40.3.0.8.200.0/beat_net2/best_new_metric,1.696588829030186,/home/dattran/MegaDataset/beat_classification/200914/beatv63subject.480.60.0.0.40.3.0.8.200.0/checkpoint/beat_net2/best_new_metric,vagOdifbetncmatr
