#,Case,Error,Checkpoint,ain_ext
0,beatv63subject.480.60.0.0.40.3.1.8.0.1/beat_net/best_new_metric,1.6209725458740512,/home/dattran/MegaDataset/beat_classification/200914/beatv63subject.480.60.0.0.40.3.1.8.0.1/checkpoint/beat_net/best_new_metric,
1,beatv63subject.480.60.0.0.40.3.1.8.200.2/beat_net/best_new_metric,1.6336221819470202,/home/dattran/MegaDataset/beat_classification/200914/beatv63subject.480.60.0.0.40.3.1.8.200.2/checkpoint/beat_net/best_new_metric,
2,beatv63subject.480.60.0.0.40.3.0.8.0.1/beat_net2/best_new_metric,1.6768311302341063,/home/dattran/MegaDataset/beat_classification/200914/beatv63subject.480.60.0.0.40.3.0.8.0.1/checkpoint/beat_net2/best_new_metric,vagOdibetncmatr
3,beatv63subject.480.60.0.0.40.3.0.8.200.0/beat_net2/best_new_metric,1.696588829030186,/home/dattran/MegaDataset/beat_classification/200914/beatv63subject.480.60.0.0.40.3.0.8.200.0/checkpoint/beat_net2/best_new_metric,vagOdifbetncmatr
4,beatv63subject.480.60.0.0.40.2.0.8.0.0/beat_net/best_new_metric,1.7275045522140589,/home/dattran/MegaDataset/beat_classification/200914/beatv63subject.480.60.0.0.40.2.0.8.0.0/checkpoint/beat_net/best_new_metric,
5,beatv63subject.480.60.0.0.40.3.0.8.200.1/beat_net2/best_new_metric,1.7381210084504068,/home/dattran/MegaDataset/beat_classification/200914/beatv63subject.480.60.0.0.40.3.0.8.200.1/checkpoint/beat_net2/best_new_metric,vagOdifbetncmatr
6,beatv63subject.480.60.0.0.40.3.0.8.200.0/beat_net/best_new_metric,1.7539819546073065,/home/dattran/MegaDataset/beat_classification/200914/beatv63subject.480.60.0.0.40.3.0.8.200.0/checkpoint/beat_net/best_new_metric,
