#,Case,Error,Checkpoint
0,beatv63subject.480.60.0.0.40.3.1.8.0.1/beat_net/best_new_metric,1.6209725458740512,/home/dattran/MegaDataset/beat_classification/200914/beatv63subject.480.60.0.0.40.3.1.8.0.1/checkpoint/beat_net/best_new_metric
1,beatv63subject.480.60.0.0.40.3.1.8.200.2/beat_net/best_new_metric,1.6336221819470202,/home/dattran/MegaDataset/beat_classification/200914/beatv63subject.480.60.0.0.40.3.1.8.200.2/checkpoint/beat_net/best_new_metric
2,beatv63subject.480.60.0.0.40.3.1.8.200.1/beat_seq/best_new_metric,1.6365024355140334,/home/dattran/MegaDataset/beat_classification/200914/beatv63subject.480.60.0.0.40.3.1.8.200.1/checkpoint/beat_seq/best_new_metric
3,beatv63subject.480.60.0.0.40.3.1.8.0.0/beat_seq/best_new_metric,1.6547546322416653,/home/dattran/MegaDataset/beat_classification/200914/beatv63subject.480.60.0.0.40.3.1.8.0.0/checkpoint/beat_seq/best_new_metric
4,beatv63subject.480.60.0.0.40.3.1.8.0.1/beat_seq/best_new_metric,1.6752462280037486,/home/dattran/MegaDataset/beat_classification/200914/beatv63subject.480.60.0.0.40.3.1.8.0.1/checkpoint/beat_seq/best_new_metric
5,beatv63subject.480.60.0.0.40.3.0.8.0.1/beat_net2/best_new_metric,1.6768311302341063,/home/dattran/MegaDataset/beat_classification/200914/beatv63subject.480.60.0.0.40.3.0.8.0.1/checkpoint/beat_net2/best_new_metric
6,beatv63subject.480.60.0.0.40.3.0.8.200.0/beat_net2/best_new_metric,1.696588829030186,/home/dattran/MegaDataset/beat_classification/200914/beatv63subject.480.60.0.0.40.3.0.8.200.0/checkpoint/beat_net2/best_new_metric
7,beatv63subject.480.60.0.0.40.2.0.8.0.0/beat_net/best_new_metric,1.7275045522140589,/home/dattran/MegaDataset/beat_classification/200914/beatv63subject.480.60.0.0.40.2.0.8.0.0/checkpoint/beat_net/best_new_metric
8,beatv63subject.480.60.0.0.40.3.1.8.200.2/beat_seq/best_new_metric,1.7346647918437692,/home/dattran/MegaDataset/beat_classification/200914/beatv63subject.480.60.0.0.40.3.1.8.200.2/checkpoint/beat_seq/best_new_metric
9,beatv63subject.480.60.0.0.40.3.0.8.200.1/beat_net2/best_new_metric,1.7381210084504068,/home/dattran/MegaDataset/beat_classification/200914/beatv63subject.480.60.0.0.40.3.0.8.200.1/checkpoint/beat_net2/best_new_metric
10,beatv63subject.480.60.0.0.40.3.0.8.200.0/beat_net/best_new_metric,1.7539819546073065,/home/dattran/MegaDataset/beat_classification/200914/beatv63subject.480.60.0.0.40.3.0.8.200.0/checkpoint/beat_net/best_new_metric
11,beatv63subject.480.60.0.0.40.3.0.8.0.1/beat_net/best_new_metric,1.760789840729537,/home/dattran/MegaDataset/beat_classification/200914/beatv63subject.480.60.0.0.40.3.0.8.0.1/checkpoint/beat_net/best_new_metric
12,beatv63subject.480.60.0.0.40.3.1.8.0.2/beat_seq/best_new_metric,1.7611741281797981,/home/dattran/MegaDataset/beat_classification/200914/beatv63subject.480.60.0.0.40.3.1.8.0.2/checkpoint/beat_seq/best_new_metric
13,beatv63subject.480.60.0.0.40.3.0.8.200.2/beat_net2/best_new_metric,1.7673297675802857,/home/dattran/MegaDataset/beat_classification/200914/beatv63subject.480.60.0.0.40.3.0.8.200.2/checkpoint/beat_net2/best_new_metric
14,beatv63subject.480.60.0.0.40.2.1.8.0.2/beat_net/best_new_metric,1.7791436048947415,/home/dattran/MegaDataset/beat_classification/200914/beatv63subject.480.60.0.0.40.2.1.8.0.2/checkpoint/beat_net/best_new_metric
15,beatv63subject.480.60.0.0.40.2.1.8.200.0/beat_net/best_new_metric,1.7926016924744381,/home/dattran/MegaDataset/beat_classification/200914/beatv63subject.480.60.0.0.40.2.1.8.200.0/checkpoint/beat_net/best_new_metric
16,beatv63subject.480.60.0.0.40.3.1.8.200.0/beat_seq/best_new_metric,1.8338560940795547,/home/dattran/MegaDataset/beat_classification/200914/beatv63subject.480.60.0.0.40.3.1.8.200.0/checkpoint/beat_seq/best_new_metric
17,beatv63subject.480.60.0.0.40.2.1.8.200.1/beat_net/best_new_metric,1.8407798140205114,/home/dattran/MegaDataset/beat_classification/200914/beatv63subject.480.60.0.0.40.2.1.8.200.1/checkpoint/beat_net/best_new_metric
18,beatv63subject.480.60.0.0.40.3.0.8.0.0/beat_net/best_new_metric,1.8479247252436852,/home/dattran/MegaDataset/beat_classification/200914/beatv63subject.480.60.0.0.40.3.0.8.0.0/checkpoint/beat_net/best_new_metric
19,beatv63subject.480.60.0.0.40.1.1.8.200.1/beat_net/best_new_metric,1.8643600318058162,/home/dattran/MegaDataset/beat_classification/200914/beatv63subject.480.60.0.0.40.1.1.8.200.1/checkpoint/beat_net/best_new_metric
20,beatv63subject.480.60.0.0.40.3.0.8.0.2/beat_net/best_new_metric,1.8687999089280125,/home/dattran/MegaDataset/beat_classification/200914/beatv63subject.480.60.0.0.40.3.0.8.0.2/checkpoint/beat_net/best_new_metric
21,beatv63subject.480.60.0.0.40.2.1.8.0.0/beat_net/best_new_metric,1.879483036374855,/home/dattran/MegaDataset/beat_classification/200914/beatv63subject.480.60.0.0.40.2.1.8.0.0/checkpoint/beat_net/best_new_metric
22,beatv63subject.480.60.0.0.40.3.1.8.200.1/beat_net2/best_new_metric,1.8905492693007009,/home/dattran/MegaDataset/beat_classification/200914/beatv63subject.480.60.0.0.40.3.1.8.200.1/checkpoint/beat_net2/best_new_metric
23,beatv63subject.480.60.0.0.40.3.1.8.200.1/beat_net/best_new_metric,1.8967527135198925,/home/dattran/MegaDataset/beat_classification/200914/beatv63subject.480.60.0.0.40.3.1.8.200.1/checkpoint/beat_net/best_new_metric
24,beatv63subject.480.60.0.0.40.1.0.8.200.2/beat_net/best_new_metric,1.9045037815036838,/home/dattran/MegaDataset/beat_classification/200914/beatv63subject.480.60.0.0.40.1.0.8.200.2/checkpoint/beat_net/best_new_metric
25,beatv63subject.480.60.0.0.40.2.0.8.200.0/beat_net/best_new_metric,1.9066185577600168,/home/dattran/MegaDataset/beat_classification/200914/beatv63subject.480.60.0.0.40.2.0.8.200.0/checkpoint/beat_net/best_new_metric
26,beatv63subject.480.60.0.0.40.3.0.8.0.2/beat_net2/best_new_metric,1.912076506013578,/home/dattran/MegaDataset/beat_classification/200914/beatv63subject.480.60.0.0.40.3.0.8.0.2/checkpoint/beat_net2/best_new_metric
27,beatv63subject.480.60.0.0.40.3.1.8.200.2/beat_net2/best_new_metric,1.9188982399455854,/home/dattran/MegaDataset/beat_classification/200914/beatv63subject.480.60.0.0.40.3.1.8.200.2/checkpoint/beat_net2/best_new_metric
28,beatv63subject.480.60.0.0.40.3.1.8.0.0/beat_net/best_new_metric,1.9237965342979475,/home/dattran/MegaDataset/beat_classification/200914/beatv63subject.480.60.0.0.40.3.1.8.0.0/checkpoint/beat_net/best_new_metric
29,beatv63subject.480.60.0.0.40.1.1.8.200.2/beat_net/best_new_metric,1.9518115895680608,/home/dattran/MegaDataset/beat_classification/200914/beatv63subject.480.60.0.0.40.1.1.8.200.2/checkpoint/beat_net/best_new_metric
30,beatv63subject.480.60.0.0.40.3.1.8.0.0/beat_net2/best_new_metric,1.9646970912301258,/home/dattran/MegaDataset/beat_classification/200914/beatv63subject.480.60.0.0.40.3.1.8.0.0/checkpoint/beat_net2/best_new_metric
31,beatv63subject.480.60.0.0.40.1.0.8.200.1/beat_net/best_new_metric,1.9860058904347468,/home/dattran/MegaDataset/beat_classification/200914/beatv63subject.480.60.0.0.40.1.0.8.200.1/checkpoint/beat_net/best_new_metric
32,beatv63subject.480.60.0.0.40.2.0.8.200.2/beat_net/best_new_metric,1.9891259567146817,/home/dattran/MegaDataset/beat_classification/200914/beatv63subject.480.60.0.0.40.2.0.8.200.2/checkpoint/beat_net/best_new_metric
33,beatv63subject.480.60.0.0.40.2.0.8.200.1/beat_net/best_new_metric,1.9936543196416412,/home/dattran/MegaDataset/beat_classification/200914/beatv63subject.480.60.0.0.40.2.0.8.200.1/checkpoint/beat_net/best_new_metric
34,beatv63subject.480.60.0.0.40.2.1.8.0.1/beat_net/best_new_metric,1.9949441648741835,/home/dattran/MegaDataset/beat_classification/200914/beatv63subject.480.60.0.0.40.2.1.8.0.1/checkpoint/beat_net/best_new_metric
35,beatv63subject.480.60.0.0.40.3.1.8.0.1/beat_net2/best_new_metric,2.035124204706725,/home/dattran/MegaDataset/beat_classification/200914/beatv63subject.480.60.0.0.40.3.1.8.0.1/checkpoint/beat_net2/best_new_metric
36,beatv63subject.480.60.0.0.40.1.1.8.0.2/beat_net/best_new_metric,2.0578687517658176,/home/dattran/MegaDataset/beat_classification/200914/beatv63subject.480.60.0.0.40.1.1.8.0.2/checkpoint/beat_net/best_new_metric
37,beatv63subject.480.60.0.0.40.1.0.8.200.0/beat_net/best_new_metric,2.0823220329832584,/home/dattran/MegaDataset/beat_classification/200914/beatv63subject.480.60.0.0.40.1.0.8.200.0/checkpoint/beat_net/best_new_metric
38,beatv63subject.480.60.0.0.40.3.0.8.200.2/beat_net/best_new_metric,2.0916856631449967,/home/dattran/MegaDataset/beat_classification/200914/beatv63subject.480.60.0.0.40.3.0.8.200.2/checkpoint/beat_net/best_new_metric
39,beatv63subject.480.60.0.0.40.3.1.8.200.0/beat_net2/best_new_metric,2.099794297428401,/home/dattran/MegaDataset/beat_classification/200914/beatv63subject.480.60.0.0.40.3.1.8.200.0/checkpoint/beat_net2/best_new_metric
40,beatv63subject.480.60.0.0.40.3.1.8.0.2/beat_net/best_new_metric,2.189702985024469,/home/dattran/MegaDataset/beat_classification/200914/beatv63subject.480.60.0.0.40.3.1.8.0.2/checkpoint/beat_net/best_new_metric
41,beatv63subject.480.60.0.0.40.2.0.8.0.2/beat_net/best_new_metric,2.1935274838441323,/home/dattran/MegaDataset/beat_classification/200914/beatv63subject.480.60.0.0.40.2.0.8.0.2/checkpoint/beat_net/best_new_metric
42,beatv63subject.480.60.0.0.40.1.0.8.0.1/beat_net/best_new_metric,2.209143232090701,/home/dattran/MegaDataset/beat_classification/200914/beatv63subject.480.60.0.0.40.1.0.8.0.1/checkpoint/beat_net/best_new_metric
43,beatv63subject.480.60.0.0.40.1.0.8.0.0/beat_net/best_new_metric,2.2262772438934557,/home/dattran/MegaDataset/beat_classification/200914/beatv63subject.480.60.0.0.40.1.0.8.0.0/checkpoint/beat_net/best_new_metric
44,beatv63subject.480.60.0.0.40.1.1.8.0.0/beat_net/best_new_metric,2.269963750946197,/home/dattran/MegaDataset/beat_classification/200914/beatv63subject.480.60.0.0.40.1.1.8.0.0/checkpoint/beat_net/best_new_metric
45,beatv63subject.480.60.0.0.40.1.0.8.0.2/beat_net/best_new_metric,2.2920246351234868,/home/dattran/MegaDataset/beat_classification/200914/beatv63subject.480.60.0.0.40.1.0.8.0.2/checkpoint/beat_net/best_new_metric
46,beatv63subject.480.60.0.0.40.1.1.8.200.0/beat_net/best_new_metric,2.3672024294450615,/home/dattran/MegaDataset/beat_classification/200914/beatv63subject.480.60.0.0.40.1.1.8.200.0/checkpoint/beat_net/best_new_metric
