#,Case,Error,Checkpoint
0,beatv63subject.300.60.0.0.0.3.0.11.3.0/beat_net/best_new_f1,0.5099598556528574,/mnt/ai_data/MegaDataset/beat_classification/201008/beatv63subject.300.60.0.0.0.3.0.11.3.0/checkpoint/beat_net/best_new_f1
1,beatv63subject.300.60.0.0.0.3.1.11.3.0/beat_net/best_new_f1,0.5273917747194721,/mnt/ai_data/MegaDataset/beat_classification/201008/beatv63subject.300.60.0.0.0.3.1.11.3.0/checkpoint/beat_net/best_new_f1
2,beatv63subject.300.60.0.0.0.3.1.11.0.0/beat_net/best_new_f1,0.5478106114068011,/mnt/ai_data/MegaDataset/beat_classification/201008/beatv63subject.300.60.0.0.0.3.1.11.0.0/checkpoint/beat_net/best_new_f1
3,beatv63subject.300.60.0.0.0.3.1.11.3.0/beat_seq/best_new_f1,0.5873404040941237,/mnt/ai_data/MegaDataset/beat_classification/201008/beatv63subject.300.60.0.0.0.3.1.11.3.0/checkpoint/beat_seq/best_new_f1
4,beatv63subject.300.60.0.0.0.3.0.11.3.0/beat_seq/best_new_f1,0.5920001737508427,/mnt/ai_data/MegaDataset/beat_classification/201008/beatv63subject.300.60.0.0.0.3.0.11.3.0/checkpoint/beat_seq/best_new_f1
