#,Case,Error,Checkpoint
0,beatv63subject.480.60.0.0.0.3.0.13.0.1/beat_seq3/best_new_f1,0.33476708059025495,/mnt/ai_data/MegaDataset/beat_classification/210210/beatv63subject.480.60.0.0.0.3.0.13.0.1/checkpoint/beat_seq3/best_new_f1
1,beatv63subject.480.60.0.0.0.3.0.13.300.0/beat_seq3/best_new_f1,0.3658217895713225,/mnt/ai_data/MegaDataset/beat_classification/210210/beatv63subject.480.60.0.0.0.3.0.13.300.0/checkpoint/beat_seq3/best_new_f1
2,beatv63subject.480.60.0.0.0.3.0.13.0.0/beat_seq3/best_new_f1,0.4019583391356705,/mnt/ai_data/MegaDataset/beat_classification/210210/beatv63subject.480.60.0.0.0.3.0.13.0.0/checkpoint/beat_seq3/best_new_f1
3,beatv63subject.480.60.0.0.0.3.0.13.0.2/beat_seq3/best_new_f1,0.4181954863791927,/mnt/ai_data/MegaDataset/beat_classification/210210/beatv63subject.480.60.0.0.0.3.0.13.0.2/checkpoint/beat_seq3/best_new_f1
4,beatv63subject.480.60.0.0.0.3.0.13.200.1/beat_seq3/best_new_f1,0.44364346480371497,/mnt/ai_data/MegaDataset/beat_classification/210210/beatv63subject.480.60.0.0.0.3.0.13.200.1/checkpoint/beat_seq3/best_new_f1
5,beatv63subject.480.60.0.0.0.3.0.13.200.0/beat_seq3/best_new_f1,0.4505697709655909,/mnt/ai_data/MegaDataset/beat_classification/210210/beatv63subject.480.60.0.0.0.3.0.13.200.0/checkpoint/beat_seq3/best_new_f1
