{
  "beatv63subject.480.60.0.0.0.3.0.13.0.0.beat_seq3": {
    "VERSION": "beatv63subject.480.60.0.0.0.3.0.13.0.0",
    "MODEL": "beat_seq3",
    "BEAT_BLOCK_LEN": 480,
    "BEAT_SEGMENT_LEN": 60,
    "BEAT_OVERLAP": 0,
    "BEAT_CHANNEL_NUM": 0,
    "BEAT_OFFSET_LEN": 0,
    "BEAT_FEATURE_LEN": 15360,
    "BEAT_BWR": 3,
    "BEAT_NORM": false,
    "BEAT_CLASS": "13",
    "GAMMA": 0,
    "FUNCTION_CREATE_DATA": "create_dataset_subject_based_tfrecord",
    "DB_TRAINING": [
      [
        "ltdb",
        "atr",
        "atr"
      ],
      [
        "stdb",
        "atr",
        "atr"
      ],
      [
        "ltstdb",
        "atr",
        "atr"
      ],
      [
        "svdb",
        "atr",
        "atr"
      ],
      [
        "chfdb",
        "ecg",
        "ecg"
      ]
    ],
    "DB_TESTING": [
      [
        "ahadb",
        "atr",
        "atr"
      ],
      [
        "escdb",
        "atr",
        "atr"
      ],
      [
        "mitdb",
        "atr",
        "atr"
      ]
    ],
    "CLASS": {
      "NOTBEAT": [],
      "NOR": [
        "N",
        "L",
        "R",
        "e",
        "J"
      ],
      "VES": [
        "V",
        "E"
      ],
      "SVES": [
        "A",
        "a",
        "S",
        "j"
      ]
    },
    "CLASS_WEIGHT": [
      1,
      2,
      3,
      4
    ],
    "OUTPUT_DIR": "/beatv63subject.480.60.0.0.0.3.0.13.0.0/",
    "DATA_MODEL_DIR": "/data.480.60.0.0.0.3.0.13/",
    "TRAIN_DIR": "/data.480.60.0.0.0.3.0.13/train/",
    "EVAL_DIR": "/data.480.60.0.0.0.3.0.13/eval/",
    "OUTPUT_EC57_LOSS": "/beatv63subject.480.60.0.0.0.3.0.13.0.0/ec57/beat_seq3/best_entropy_loss/",
    "OUTPUT_EC57_SQUARED_ERR": "/beatv63subject.480.60.0.0.0.3.0.13.0.0/ec57/beat_seq3/best_squared_err/",
    "OUTPUT_EC57_F1_SCORE": "/beatv63subject.480.60.0.0.0.3.0.13.0.0/ec57/beat_seq3/best_f1_score/"
  },
  "beatv63subject.480.60.0.0.0.3.0.13.0.1.beat_seq3": {
    "VERSION": "beatv63subject.480.60.0.0.0.3.0.13.0.1",
    "MODEL": "beat_seq3",
    "BEAT_BLOCK_LEN": 480,
    "BEAT_SEGMENT_LEN": 60,
    "BEAT_OVERLAP": 0,
    "BEAT_CHANNEL_NUM": 0,
    "BEAT_OFFSET_LEN": 0,
    "BEAT_FEATURE_LEN": 15360,
    "BEAT_BWR": 3,
    "BEAT_NORM": false,
    "BEAT_CLASS": "13",
    "GAMMA": 0,
    "FUNCTION_CREATE_DATA": "create_dataset_subject_based_tfrecord",
    "DB_TRAINING": [
      [
        "ltdb",
        "atr",
        "atr"
      ],
      [
        "stdb",
        "atr",
        "atr"
      ],
      [
        "ltstdb",
        "atr",
        "atr"
      ],
      [
        "svdb",
        "atr",
        "atr"
      ],
      [
        "chfdb",
        "ecg",
        "ecg"
      ]
    ],
    "DB_TESTING": [
      [
        "ahadb",
        "atr",
        "atr"
      ],
      [
        "escdb",
        "atr",
        "atr"
      ],
      [
        "mitdb",
        "atr",
        "atr"
      ]
    ],
    "CLASS": {
      "NOTBEAT": [],
      "NOR": [
        "N",
        "L",
        "R",
        "e",
        "J"
      ],
      "VES": [
        "V",
        "E"
      ],
      "SVES": [
        "A",
        "a",
        "S",
        "j"
      ]
    },
    "CLASS_WEIGHT": [
      1,
      2,
      3,
      4
    ],
    "OUTPUT_DIR": "/beatv63subject.480.60.0.0.0.3.0.13.0.1/",
    "DATA_MODEL_DIR": "/data.480.60.0.0.0.3.0.13/",
    "TRAIN_DIR": "/data.480.60.0.0.0.3.0.13/train/",
    "EVAL_DIR": "/data.480.60.0.0.0.3.0.13/eval/",
    "OUTPUT_EC57_LOSS": "/beatv63subject.480.60.0.0.0.3.0.13.0.1/ec57/beat_seq3/best_entropy_loss/",
    "OUTPUT_EC57_SQUARED_ERR": "/beatv63subject.480.60.0.0.0.3.0.13.0.1/ec57/beat_seq3/best_squared_err/",
    "OUTPUT_EC57_F1_SCORE": "/beatv63subject.480.60.0.0.0.3.0.13.0.1/ec57/beat_seq3/best_f1_score/"
  },
  "beatv63subject.480.60.0.0.0.3.0.13.0.2.beat_seq3": {
    "VERSION": "beatv63subject.480.60.0.0.0.3.0.13.0.2",
    "MODEL": "beat_seq3",
    "BEAT_BLOCK_LEN": 480,
    "BEAT_SEGMENT_LEN": 60,
    "BEAT_OVERLAP": 0,
    "BEAT_CHANNEL_NUM": 0,
    "BEAT_OFFSET_LEN": 0,
    "BEAT_FEATURE_LEN": 15360,
    "BEAT_BWR": 3,
    "BEAT_NORM": false,
    "BEAT_CLASS": "13",
    "GAMMA": 0,
    "FUNCTION_CREATE_DATA": "create_dataset_subject_based_tfrecord",
    "DB_TRAINING": [
      [
        "ltdb",
        "atr",
        "atr"
      ],
      [
        "stdb",
        "atr",
        "atr"
      ],
      [
        "ltstdb",
        "atr",
        "atr"
      ],
      [
        "svdb",
        "atr",
        "atr"
      ],
      [
        "chfdb",
        "ecg",
        "ecg"
      ]
    ],
    "DB_TESTING": [
      [
        "ahadb",
        "atr",
        "atr"
      ],
      [
        "escdb",
        "atr",
        "atr"
      ],
      [
        "mitdb",
        "atr",
        "atr"
      ]
    ],
    "CLASS": {
      "NOTBEAT": [],
      "NOR": [
        "N",
        "L",
        "R",
        "e",
        "J"
      ],
      "VES": [
        "V",
        "E"
      ],
      "SVES": [
        "A",
        "a",
        "S",
        "j"
      ]
    },
    "CLASS_WEIGHT": [
      1,
      2,
      3,
      4
    ],
    "OUTPUT_DIR": "/beatv63subject.480.60.0.0.0.3.0.13.0.2/",
    "DATA_MODEL_DIR": "/data.480.60.0.0.0.3.0.13/",
    "TRAIN_DIR": "/data.480.60.0.0.0.3.0.13/train/",
    "EVAL_DIR": "/data.480.60.0.0.0.3.0.13/eval/",
    "OUTPUT_EC57_LOSS": "/beatv63subject.480.60.0.0.0.3.0.13.0.2/ec57/beat_seq3/best_entropy_loss/",
    "OUTPUT_EC57_SQUARED_ERR": "/beatv63subject.480.60.0.0.0.3.0.13.0.2/ec57/beat_seq3/best_squared_err/",
    "OUTPUT_EC57_F1_SCORE": "/beatv63subject.480.60.0.0.0.3.0.13.0.2/ec57/beat_seq3/best_f1_score/"
  },
  "beatv63subject.480.60.0.0.0.3.0.13.200.0.beat_seq3": {
    "VERSION": "beatv63subject.480.60.0.0.0.3.0.13.200.0",
    "MODEL": "beat_seq3",
    "BEAT_BLOCK_LEN": 480,
    "BEAT_SEGMENT_LEN": 60,
    "BEAT_OVERLAP": 0,
    "BEAT_CHANNEL_NUM": 0,
    "BEAT_OFFSET_LEN": 0,
    "BEAT_FEATURE_LEN": 15360,
    "BEAT_BWR": 3,
    "BEAT_NORM": false,
    "BEAT_CLASS": "13",
    "GAMMA": 2,
    "FUNCTION_CREATE_DATA": "create_dataset_subject_based_tfrecord",
    "DB_TRAINING": [
      [
        "ltdb",
        "atr",
        "atr"
      ],
      [
        "stdb",
        "atr",
        "atr"
      ],
      [
        "ltstdb",
        "atr",
        "atr"
      ],
      [
        "svdb",
        "atr",
        "atr"
      ],
      [
        "chfdb",
        "ecg",
        "ecg"
      ]
    ],
    "DB_TESTING": [
      [
        "ahadb",
        "atr",
        "atr"
      ],
      [
        "escdb",
        "atr",
        "atr"
      ],
      [
        "mitdb",
        "atr",
        "atr"
      ]
    ],
    "CLASS": {
      "NOTBEAT": [],
      "NOR": [
        "N",
        "L",
        "R",
        "e",
        "J"
      ],
      "VES": [
        "V",
        "E"
      ],
      "SVES": [
        "A",
        "a",
        "S",
        "j"
      ]
    },
    "CLASS_WEIGHT": [
      1,
      2,
      3,
      4
    ],
    "OUTPUT_DIR": "/beatv63subject.480.60.0.0.0.3.0.13.200.0/",
    "DATA_MODEL_DIR": "/data.480.60.0.0.0.3.0.13/",
    "TRAIN_DIR": "/data.480.60.0.0.0.3.0.13/train/",
    "EVAL_DIR": "/data.480.60.0.0.0.3.0.13/eval/",
    "OUTPUT_EC57_LOSS": "/beatv63subject.480.60.0.0.0.3.0.13.200.0/ec57/beat_seq3/best_entropy_loss/",
    "OUTPUT_EC57_SQUARED_ERR": "/beatv63subject.480.60.0.0.0.3.0.13.200.0/ec57/beat_seq3/best_squared_err/",
    "OUTPUT_EC57_F1_SCORE": "/beatv63subject.480.60.0.0.0.3.0.13.200.0/ec57/beat_seq3/best_f1_score/"
  },
  "beatv63subject.480.60.0.0.0.3.0.13.200.1.beat_seq3": {
    "VERSION": "beatv63subject.480.60.0.0.0.3.0.13.200.1",
    "MODEL": "beat_seq3",
    "BEAT_BLOCK_LEN": 480,
    "BEAT_SEGMENT_LEN": 60,
    "BEAT_OVERLAP": 0,
    "BEAT_CHANNEL_NUM": 0,
    "BEAT_OFFSET_LEN": 0,
    "BEAT_FEATURE_LEN": 15360,
    "BEAT_BWR": 3,
    "BEAT_NORM": false,
    "BEAT_CLASS": "13",
    "GAMMA": 2,
    "FUNCTION_CREATE_DATA": "create_dataset_subject_based_tfrecord",
    "DB_TRAINING": [
      [
        "ltdb",
        "atr",
        "atr"
      ],
      [
        "stdb",
        "atr",
        "atr"
      ],
      [
        "ltstdb",
        "atr",
        "atr"
      ],
      [
        "svdb",
        "atr",
        "atr"
      ],
      [
        "chfdb",
        "ecg",
        "ecg"
      ]
    ],
    "DB_TESTING": [
      [
        "ahadb",
        "atr",
        "atr"
      ],
      [
        "escdb",
        "atr",
        "atr"
      ],
      [
        "mitdb",
        "atr",
        "atr"
      ]
    ],
    "CLASS": {
      "NOTBEAT": [],
      "NOR": [
        "N",
        "L",
        "R",
        "e",
        "J"
      ],
      "VES": [
        "V",
        "E"
      ],
      "SVES": [
        "A",
        "a",
        "S",
        "j"
      ]
    },
    "CLASS_WEIGHT": [
      1,
      2,
      3,
      4
    ],
    "OUTPUT_DIR": "/beatv63subject.480.60.0.0.0.3.0.13.200.1/",
    "DATA_MODEL_DIR": "/data.480.60.0.0.0.3.0.13/",
    "TRAIN_DIR": "/data.480.60.0.0.0.3.0.13/train/",
    "EVAL_DIR": "/data.480.60.0.0.0.3.0.13/eval/",
    "OUTPUT_EC57_LOSS": "/beatv63subject.480.60.0.0.0.3.0.13.200.1/ec57/beat_seq3/best_entropy_loss/",
    "OUTPUT_EC57_SQUARED_ERR": "/beatv63subject.480.60.0.0.0.3.0.13.200.1/ec57/beat_seq3/best_squared_err/",
    "OUTPUT_EC57_F1_SCORE": "/beatv63subject.480.60.0.0.0.3.0.13.200.1/ec57/beat_seq3/best_f1_score/"
  },
  "beatv63subject.480.60.0.0.0.3.0.13.300.0.beat_seq3": {
    "VERSION": "beatv63subject.480.60.0.0.0.3.0.13.300.0",
    "MODEL": "beat_seq3",
    "BEAT_BLOCK_LEN": 480,
    "BEAT_SEGMENT_LEN": 60,
    "BEAT_OVERLAP": 0,
    "BEAT_CHANNEL_NUM": 0,
    "BEAT_OFFSET_LEN": 0,
    "BEAT_FEATURE_LEN": 15360,
    "BEAT_BWR": 3,
    "BEAT_NORM": false,
    "BEAT_CLASS": "13",
    "GAMMA": 3,
    "FUNCTION_CREATE_DATA": "create_dataset_subject_based_tfrecord",
    "DB_TRAINING": [
      [
        "ltdb",
        "atr",
        "atr"
      ],
      [
        "stdb",
        "atr",
        "atr"
      ],
      [
        "ltstdb",
        "atr",
        "atr"
      ],
      [
        "svdb",
        "atr",
        "atr"
      ],
      [
        "chfdb",
        "ecg",
        "ecg"
      ]
    ],
    "DB_TESTING": [
      [
        "ahadb",
        "atr",
        "atr"
      ],
      [
        "escdb",
        "atr",
        "atr"
      ],
      [
        "mitdb",
        "atr",
        "atr"
      ]
    ],
    "CLASS": {
      "NOTBEAT": [],
      "NOR": [
        "N",
        "L",
        "R",
        "e",
        "J"
      ],
      "VES": [
        "V",
        "E"
      ],
      "SVES": [
        "A",
        "a",
        "S",
        "j"
      ]
    },
    "CLASS_WEIGHT": [
      1,
      2,
      3,
      4
    ],
    "OUTPUT_DIR": "/beatv63subject.480.60.0.0.0.3.0.13.300.0/",
    "DATA_MODEL_DIR": "/data.480.60.0.0.0.3.0.13/",
    "TRAIN_DIR": "/data.480.60.0.0.0.3.0.13/train/",
    "EVAL_DIR": "/data.480.60.0.0.0.3.0.13/eval/",
    "OUTPUT_EC57_LOSS": "/beatv63subject.480.60.0.0.0.3.0.13.300.0/ec57/beat_seq3/best_entropy_loss/",
    "OUTPUT_EC57_SQUARED_ERR": "/beatv63subject.480.60.0.0.0.3.0.13.300.0/ec57/beat_seq3/best_squared_err/",
    "OUTPUT_EC57_F1_SCORE": "/beatv63subject.480.60.0.0.0.3.0.13.300.0/ec57/beat_seq3/best_f1_score/"
  }
}